[
  {
    "id": "1775181327083_no39ikb",
    "role": "user",
    "content": "根据规则文档中的内容对当前文档进行排版",
    "timestamp": 1775181327083,
    "attachments": [
      {
        "fileName": "规则.docx",
        "filePath": "/Users/cassia/Desktop/dyx/wpsjs/3. 中水设计文档校排/规则.docx",
        "fileType": "writer",
        "contentPreview": "",
        "source": "linked"
      }
    ]
  },
  {
    "id": "1775181327083_1e4k51c",
    "role": "assistant",
    "content": "",
    "timestamp": 1775181327083,
    "streaming": false
  },
  {
    "id": "tool_1775181332621_p5i6",
    "role": "tool",
    "content": "",
    "timestamp": 1775181332621,
    "toolCall": {
      "toolName": "skill",
      "input": {
        "name": "generalformat"
      },
      "output": "<skill_content name=\"generalformat\">\n# Skill: generalformat\n\n---\nname: generalformat\ndescription: >\n  从规范文档提取排版规则，自动识别段落类型并应用格式。\n  支持任意编号体系。\n  触发词：排版、按规范排版、格式化。\ncompatibility:\n  runtime: WPS JS 宏 / WPS 加载项（JSAPI）\n---\n\n# 通用文档排版\n\n## 使用方式\n\n用户提供规范文档内容，Skill 自动提取规则并应用到当前文档。\n\n---\n\n## 执行步骤\n\n### Step 1 — 读取规范文档\n\n**方式A：用户提供规范文档路径**\n\n```yaml\nexecuteFile:\n  filePath: \"skills/generalformat/scripts/parse-spec.js\"\n  params:\n    specDocPath: \"/path/to/spec.docx\"\n```\n\n**方式B：用户提供规范文档内容文本**\n\n```yaml\nexecuteFile:\n  filePath: \"skills/generalformat/scripts/parse-spec.js\"\n  params:\n    specDocContent: \"一、整体要求\\n页边距设置为...\"\n```\n\n**方式C：使用当前活动文档作为规范文档**\n\n```yaml\nexecuteFile:\n  filePath: \"skills/generalformat/scripts/parse-spec.js\"\n  params: {}\n```\n\n返回：`{ success: true, content: \"规范文档全文...\" }`\n\n---\n\n### Step 2 — 提取排版规则\n\n将 Step 1 获取的规范文档内容发送给 LLM：\n\n```text\n参考文件：prompts/parse-spec-doc.md\n输入：规范文档全文内容\n输出：排版配置 JSON\n```\n\n将 LLM 返回的配置保存为 `$formatConfig`。\n\n---\n\n### Step 3 — 识别目标文档编号体系（可选）\n\n如果目标文档编号体系不明确，调用 LLM 分析：\n\n```text\n参考文件：prompts/classify-paras.md\n输入：目标文档前 50 段内容\n输出：编号识别规则\n```\n\n将识别规则合并到 `$formatConfig.numberingPatterns` 中。\n\n---\n\n### Step 4 — 应用排版（分批循环）\n\n**⚠️ 关键：Agent必须自动循环执行所有批次，不能中途停止！**\n\n大文档（>300段）会触发 LoopGuard 超时，必须分批处理。Agent收到 `hasMore: true` 后必须立即继续下一批，**绝对不能停下来问用户是否继续**。\n\n**循环执行规则**：\n```\n第1批 → 返回 hasMore=true → 立即执行第2批\n第2批 → 返回 hasMore=true → 立即执行第3批\n...继续自动循环...\n第N批 → 返回 hasMore=false → 完成，向用户汇报最终结果\n```\n\n**错误示例**（绝对禁止）：\n```\n第1批 → 返回 hasMore=true → 告诉用户\"请告诉我继续处理\" ❌\n```\n\n**正确示例**：\n```\n第1批 → hasMore=true → 立即执行第2批\n第2批 → hasMore=true → 立即执行第3批\n...（中间不与用户交互）\n第32批 → hasMore=false → 汇报\"已处理全部9388段落\"\n```\n\n调用参数（推荐使用 params 对象）：\n```yaml\nexecuteFile:\n  filePath: \"skills/generalformat/scripts/format-engine.js\"\n  params:\n    config: \"$formatConfig\"\n    params: { start: 301, size: 300 }   # 推荐！单一对象格式\n```\n\n**为什么用 params 对象？**\n- LLM 返回字段名不可控，但对象内容可以智能解析\n- 脚本通过正则匹配键名，识别含义（start/begin/from/offset → 起始位置）\n- 支持 `nextBatch.params` 直接传递，无需关心命名\n\n**兼容格式**：脚本也支持单独参数（batchStart/batchSize/start/size 等）\n\n**参数说明**：\n- `config.isSelection`：是否只处理选区（默认 false）\n- `config.numberingPatterns`：编号识别规则\n- `config.paragraphRules`：排版规则\n- `config.fontDefaults`：默认字体\n- `_batchStart`：批次起始位置（内部用，首次为1）\n- `_batchSize`：每批数量（推荐300，大文档可调至200）\n\n**单批次返回值**：\n\n```json\n{\n  \"success\": true,\n  \"applied\": 280,\n  \"skipped\": 20,\n  \"elapsedMs\": 1200,\n  \"batchStart\": 1,\n  \"batchEnd\": 300,\n  \"total\": 9388,\n  \"hasMore\": true,\n  \"nextBatch\": {\n    \"params\": { \"start\": 301, \"size\": 300 },\n    \"batchStart\": 301,\n    \"batchSize\": 300\n  }\n}\n```\n\n**最终返回值**（hasMore=false 时）：\n\n```json\n{\n  \"success\": true,\n  \"applied\": 8500,\n  \"skipped\": 888,\n  \"elapsedMs\": 35000,\n  \"total\": 9388,\n  \"hasMore\": false,\n  \"batchesProcessed\": 32\n}\n```\n\n---\n\n### Step 5 — 应用页面设置（可选）\n\n如果配置包含 `documentInfo.pageMargins`，调用：\n\n```yaml\nexecuteFile:\n  filePath: \"skills/generalformat/scripts/apply-page-setup.js\"\n  params:\n    config: \"$formatConfig\"\n```\n\n---\n\n## 配置格式\n\n```json\n{\n  \"version\": \"1.0\",\n  \"fontDefaults\": { \"fontCN\": \"宋体\", \"fontEN\": \"Times New Roman\" },\n  \"numberingPatterns\": {\n    \"zhangTitle\": [\"^第[一二三四五六七八九十]+章\", \"^\\\\d{1,2}\\\\s+[\\\\u4e00-\\\\u9fff]\"],\n    \"heading2\": [\"^\\\\d+\\\\.\\\\d+(\\\\s|$)\"],\n    \"heading3\": [\"^\\\\d+\\\\.\\\\d+\\\\.\\\\d+(\\\\s|$)\"],\n    \"tableCaption\": [\"^表\\\\s*[\\\\d\\\\.A-Za-z\\\\-]+\"],\n    \"figureCaption\": [\"^图\\\\s*[\\\\d\\\\.A-Za-z\\\\-]+\"]\n  },\n  \"paragraphRules\": {\n    \"zhangTitle\": { \"fontCN\": \"黑体\", \"fontSize\": 16, \"bold\": true, \"alignment\": 1 },\n    \"heading2\": { \"fontCN\": \"黑体\", \"fontSize\": 14, \"bold\": true, \"alignment\": 0 },\n    \"body\": { \"fontCN\": \"宋体\", \"fontSize\": 12, \"alignment\": 3, \"firstLineIndent\": 24 }\n  },\n  \"documentInfo\": {\n    \"pageMargins\": { \"top\": 56.7, \"bottom\": 56.7, \"left\": 70.9, \"right\": 70.9 }\n  }\n}\n```\n\n详细配置说明见 `references/config-schema.md`。\n\n---\n\n## 段落类型\n\n| 类型 | 说明 |\n|------|------|\n| zhangTitle | 章标题/一级标题 |\n| heading2 | 二级标题 |\n| heading3 | 三级标题 |\n| heading3Plus | 四级及以下标题 |\n| body | 正文段落 |\n| tableCaption | 表名 |\n| figureCaption | 图名 |\n| ref | 参考文献 |\n\n---\n\n## 异常处理\n\n**脚本报错时**：\n\n> 排版失败：{error}。请确认文档已打开后重试。\n\n**LLM 解析失败时**：\n\n> 无法解析排版规则，请提供更明确的规范文档。\n\n相对路径（如 scripts/、resources/）均相对于该 Skill 目录。\n调用 executeFile 时完整路径格式：`skills/generalformat/scripts/<文件名>`\n</skill_content>",
      "durationMs": 13
    }
  },
  {
    "id": "tool_1775181334613_zoxq",
    "role": "tool",
    "content": "",
    "timestamp": 1775181334613,
    "toolCall": {
      "toolName": "executeFile",
      "input": {
        "filePath": "skills/generalformat/scripts/parse-spec.js",
        "params": {
          "specDocPath": "/Users/cassia/Desktop/dyx/wpsjs/3. 中水设计文档校排/规则.docx"
        }
      },
      "output": "{\"success\":true,\"content\":\"章标题用黑体三号居中加粗段前12磅段后6磅，二级标题用黑体四号左对齐加粗段前6磅段后6磅，三级标题用楷体小四号左对齐不加粗段前6磅段后6磅，所有标题无缩进。\\r\"}",
      "durationMs": 16
    }
  },
  {
    "id": "tool_1775181336787_dqy3",
    "role": "tool",
    "content": "",
    "timestamp": 1775181336787,
    "toolCall": {
      "toolName": "executeCode",
      "input": {
        "code": "// 将规范文档内容转换为排版配置 JSON\nvar specContent = params.specContent;\n\nvar config = {\n  version: \"1.0\",\n  fontDefaults: { fontCN: \"宋体\", fontEN: \"Times New Roman\" },\n  numberingPatterns: {\n    zhangTitle: [\"^第 [一二三四五六七八九十]+章\", \"^\\\\d{1,2}\\\\s+[\\\\u4e00-\\\\u9fff]\"],\n    heading2: [\"^\\\\d+\\\\.\\\\d+(\\\\s|$)\"],\n    heading3: [\"^\\\\d+\\\\.\\\\d+\\\\.\\\\d+(\\\\s|$)\"]\n  },\n  paragraphRules: {\n    zhangTitle: { fontCN: \"黑体\", fontSize: 16, bold: true, alignment: 1, spaceBefore: 18, spaceAfter: 9, firstLineIndent: 0 },\n    heading2: { fontCN: \"黑体\", fontSize: 14, bold: true, alignment: 0, spaceBefore: 9, spaceAfter: 9, firstLineIndent: 0 },\n    heading3: { fontCN: \"楷体_GB2312\", fontSize: 12, bold: false, alignment: 0, spaceBefore: 9, spaceAfter: 9, firstLineIndent: 0 },\n    body: { fontCN: \"宋体\", fontSize: 12, alignment: 3, firstLineIndent: 24 }\n  }\n};\n\nreturn config;",
        "params": {
          "specContent": "章标题用黑体三号居中加粗段前 12 磅段后 6 磅，二级标题用黑体四号左对齐加粗段前 6 磅段后 6 磅，三级标题用楷体小四号左对齐不加粗段前 6 磅段后 6 磅，所有标题无缩进。\r"
        }
      },
      "output": "[ExecutionError] params is not defined",
      "durationMs": 118
    }
  },
  {
    "id": "tool_1775181344129_xdkh",
    "role": "tool",
    "content": "",
    "timestamp": 1775181344130,
    "toolCall": {
      "toolName": "executeCode",
      "input": {
        "code": "// 将规范文档内容转换为排版配置 JSON\nvar specContent = \"章标题用黑体三号居中加粗段前 12 磅段后 6 磅，二级标题用黑体四号左对齐加粗段前 6 磅段后 6 磅，三级标题用楷体小四号左对齐不加粗段前 6 磅段后 6 磅，所有标题无缩进。\\r\";\n\nvar config = {\n  version: \"1.0\",\n  fontDefaults: { fontCN: \"宋体\", fontEN: \"Times New Roman\" },\n  numberingPatterns: {\n    zhangTitle: [\"^第 [一二三四五六七八九十]+章\", \"^\\\\d{1,2}\\\\s+[\\\\u4e00-\\\\u9fff]\"],\n    heading2: [\"^\\\\d+\\\\.\\\\d+(\\\\s|$)\"],\n    heading3: [\"^\\\\d+\\\\.\\\\d+\\\\.\\\\d+(\\\\s|$)\"]\n  },\n  paragraphRules: {\n    zhangTitle: { fontCN: \"黑体\", fontSize: 16, bold: true, alignment: 1, spaceBefore: 18, spaceAfter: 9, firstLineIndent: 0 },\n    heading2: { fontCN: \"黑体\", fontSize: 14, bold: true, alignment: 0, spaceBefore: 9, spaceAfter: 9, firstLineIndent: 0 },\n    heading3: { fontCN: \"楷体_GB2312\", fontSize: 12, bold: false, alignment: 0, spaceBefore: 9, spaceAfter: 9, firstLineIndent: 0 },\n    body: { fontCN: \"宋体\", fontSize: 12, alignment: 3, firstLineIndent: 24 }\n  }\n};\n\nreturn config;"
      },
      "output": "$artifact:20260403-m205by\n{\"version\":\"1.0\",\"fontDefaults\":{\"fontCN\":\"宋体\",\"fontEN\":\"Times New Roman\"},\"numberingPatterns\":{\"zhangTitle\":[\"^第 [一二三四五六七八九十]+章\",\"^\\\\d{1,2}\\\\s+[\\\\u4e00-\\\\u9fff]\"],\"heading2\":[\"^\\\\d+\\\\.\\\\d+(\\\\s|$)\"],\"heading3\":[\"^\\\\d+\\\\.\\\\d+\\\\.\\\\d+(\\\\s|$)\"]},\"paragraphRules\":{\"zhangTitle\":{\"fontCN\":\"黑体\",\"fontSize\":16,\"bold\":true,\"alignment\":1,\"spaceBefore\":18,\"spaceAfter\":9,\"firstLineIndent\":0},\"heading2\":{\"fontCN\":\"黑体\",\"fontSize\":14,\"bold\":true,\"alignment\":0,\"spaceBefore\":9,\"spaceAfter\":9,\"firstLineIndent\":0},\"heading3\":{\"fontCN\":\"楷体_GB2312\",\"fontSize\":12,\"bold\":false,\"alignment\":0,\"spaceBefore\":9,\"spaceAfter\":9,\"firstLineIndent\":0},\"body\":{\"fontCN\":\"宋体\",\"fontSize\":12,\"alignment\":3,\"firstLineIndent\":24}}}",
      "durationMs": 129
    }
  },
  {
    "id": "tool_1775181350983_7hou",
    "role": "tool",
    "content": "",
    "timestamp": 1775181350983,
    "toolCall": {
      "toolName": "executeFile",
      "input": {
        "filePath": "skills/generalformat/scripts/format-engine.js",
        "params": {
          "config": "$artifact:20260403-m205by",
          "params": {
            "start": 1,
            "size": 300
          }
        }
      },
      "output": "$artifact:20260403-0lfq02\n{\"success\":true,\"applied\":166,\"skipped\":134,\"elapsedMs\":529,\"batchStart\":1,\"batchEnd\":300,\"total\":9388,\"hasMore\":true,\"nextBatch\":{\"params\":{\"start\":301,\"size\":300},\"batchStart\":301,\"batchSize\":300,\"_batchStart\":301,\"_batchSize\":300,\"batch_start\":301,\"batch_size\":300,\"start\":301,\"size\":300}}",
      "durationMs": 552
    }
  },
  {
    "id": "tool_1775181353433_sblo",
    "role": "tool",
    "content": "",
    "timestamp": 1775181353433,
    "toolCall": {
      "toolName": "executeFile",
      "input": {
        "filePath": "skills/generalformat/scripts/format-engine.js",
        "params": {
          "config": "$artifact:20260403-m205by",
          "params": {
            "start": 301,
            "size": 300
          }
        }
      },
      "output": "$artifact:20260403-qn9574\n{\"success\":true,\"applied\":169,\"skipped\":131,\"elapsedMs\":453,\"batchStart\":301,\"batchEnd\":600,\"total\":9388,\"hasMore\":true,\"nextBatch\":{\"params\":{\"start\":601,\"size\":300},\"batchStart\":601,\"batchSize\":300,\"_batchStart\":601,\"_batchSize\":300,\"batch_start\":601,\"batch_size\":300,\"start\":601,\"size\":300}}",
      "durationMs": 550
    }
  },
  {
    "id": "tool_1775181355937_vde1",
    "role": "tool",
    "content": "",
    "timestamp": 1775181355938,
    "toolCall": {
      "toolName": "executeFile",
      "input": {
        "filePath": "skills/generalformat/scripts/format-engine.js",
        "params": {
          "config": "$artifact:20260403-m205by",
          "params": {
            "start": 601,
            "size": 300
          }
        }
      },
      "output": "$artifact:20260403-u7jdkm\n{\"success\":true,\"applied\":198,\"skipped\":102,\"elapsedMs\":532,\"batchStart\":601,\"batchEnd\":900,\"total\":9388,\"hasMore\":true,\"nextBatch\":{\"params\":{\"start\":901,\"size\":300},\"batchStart\":901,\"batchSize\":300,\"_batchStart\":901,\"_batchSize\":300,\"batch_start\":901,\"batch_size\":300,\"start\":901,\"size\":300}}",
      "durationMs": 551
    }
  },
  {
    "id": "tool_1775181360132_g3m3",
    "role": "tool",
    "content": "",
    "timestamp": 1775181360132,
    "toolCall": {
      "toolName": "executeFile",
      "input": {
        "filePath": "skills/generalformat/scripts/format-engine.js",
        "params": {
          "config": "$artifact:20260403-m205by",
          "params": {
            "start": 901,
            "size": 300
          }
        }
      },
      "output": "$artifact:20260403-kz0j0w\n{\"success\":true,\"applied\":202,\"skipped\":98,\"elapsedMs\":544,\"batchStart\":901,\"batchEnd\":1200,\"total\":9388,\"hasMore\":true,\"nextBatch\":{\"params\":{\"start\":1201,\"size\":300},\"batchStart\":1201,\"batchSize\":300,\"_batchStart\":1201,\"_batchSize\":300,\"batch_start\":1201,\"batch_size\":300,\"start\":1201,\"size\":300}}",
      "durationMs": 570
    }
  },
  {
    "id": "tool_1775181362700_fj1h",
    "role": "tool",
    "content": "",
    "timestamp": 1775181362701,
    "toolCall": {
      "toolName": "executeFile",
      "input": {
        "filePath": "skills/generalformat/scripts/format-engine.js",
        "params": {
          "config": "$artifact:20260403-m205by",
          "params": {
            "start": 1201,
            "size": 300
          }
        }
      },
      "output": "$artifact:20260403-r5m0i6\n{\"success\":true,\"applied\":204,\"skipped\":96,\"elapsedMs\":556,\"batchStart\":1201,\"batchEnd\":1500,\"total\":9388,\"hasMore\":true,\"nextBatch\":{\"params\":{\"start\":1501,\"size\":300},\"batchStart\":1501,\"batchSize\":300,\"_batchStart\":1501,\"_batchSize\":300,\"batch_start\":1501,\"batch_size\":300,\"start\":1501,\"size\":300}}",
      "durationMs": 576
    }
  },
  {
    "id": "tool_1775181365350_kvc2",
    "role": "tool",
    "content": "",
    "timestamp": 1775181365350,
    "toolCall": {
      "toolName": "executeFile",
      "input": {
        "filePath": "skills/generalformat/scripts/format-engine.js",
        "params": {
          "config": "$artifact:20260403-m205by",
          "params": {
            "start": 1501,
            "size": 300
          }
        }
      },
      "output": "$artifact:20260403-4pid2h\n{\"success\":true,\"applied\":173,\"skipped\":127,\"elapsedMs\":457,\"batchStart\":1501,\"batchEnd\":1800,\"total\":9388,\"hasMore\":true,\"nextBatch\":{\"params\":{\"start\":1801,\"size\":300},\"batchStart\":1801,\"batchSize\":300,\"_batchStart\":1801,\"_batchSize\":300,\"batch_start\":1801,\"batch_size\":300,\"start\":1801,\"size\":300}}",
      "durationMs": 465
    }
  },
  {
    "id": "tool_1775181369191_xf18",
    "role": "tool",
    "content": "",
    "timestamp": 1775181369191,
    "toolCall": {
      "toolName": "executeFile",
      "input": {
        "filePath": "skills/generalformat/scripts/format-engine.js",
        "params": {
          "config": "$artifact:20260403-m205by",
          "params": {
            "start": 1801,
            "size": 300
          }
        }
      },
      "output": "$artifact:20260403-988h5x\n{\"success\":true,\"applied\":185,\"skipped\":115,\"elapsedMs\":500,\"batchStart\":1801,\"batchEnd\":2100,\"total\":9388,\"hasMore\":true,\"nextBatch\":{\"params\":{\"start\":2101,\"size\":300},\"batchStart\":2101,\"batchSize\":300,\"_batchStart\":2101,\"_batchSize\":300,\"batch_start\":2101,\"batch_size\":300,\"start\":2101,\"size\":300}}",
      "durationMs": 514
    }
  },
  {
    "id": "tool_1775181372033_70qj",
    "role": "tool",
    "content": "",
    "timestamp": 1775181372033,
    "toolCall": {
      "toolName": "executeFile",
      "input": {
        "filePath": "skills/generalformat/scripts/format-engine.js",
        "params": {
          "config": "$artifact:20260403-m205by",
          "params": {
            "start": 2101,
            "size": 300
          }
        }
      },
      "output": "$artifact:20260403-hrs97r\n{\"success\":true,\"applied\":188,\"skipped\":112,\"elapsedMs\":541,\"batchStart\":2101,\"batchEnd\":2400,\"total\":9388,\"hasMore\":true,\"nextBatch\":{\"params\":{\"start\":2401,\"size\":300},\"batchStart\":2401,\"batchSize\":300,\"_batchStart\":2401,\"_batchSize\":300,\"batch_start\":2401,\"batch_size\":300,\"start\":2401,\"size\":300}}",
      "durationMs": 555
    }
  },
  {
    "id": "tool_1775181374676_msc6",
    "role": "tool",
    "content": "",
    "timestamp": 1775181374676,
    "toolCall": {
      "toolName": "executeFile",
      "input": {
        "filePath": "skills/generalformat/scripts/format-engine.js",
        "params": {
          "config": "$artifact:20260403-m205by",
          "params": {
            "start": 2401,
            "size": 300
          }
        }
      },
      "output": "$artifact:20260403-mjxbc7\n{\"success\":true,\"applied\":160,\"skipped\":140,\"elapsedMs\":449,\"batchStart\":2401,\"batchEnd\":2700,\"total\":9388,\"hasMore\":true,\"nextBatch\":{\"params\":{\"start\":2701,\"size\":300},\"batchStart\":2701,\"batchSize\":300,\"_batchStart\":2701,\"_batchSize\":300,\"batch_start\":2701,\"batch_size\":300,\"start\":2701,\"size\":300}}",
      "durationMs": 471
    }
  },
  {
    "id": "tool_1775181377449_3zo6",
    "role": "tool",
    "content": "",
    "timestamp": 1775181377449,
    "toolCall": {
      "toolName": "executeFile",
      "input": {
        "filePath": "skills/generalformat/scripts/format-engine.js",
        "params": {
          "config": "$artifact:20260403-m205by",
          "params": {
            "start": 2701,
            "size": 300
          }
        }
      },
      "output": "$artifact:20260403-f9hqjq\n{\"success\":true,\"applied\":195,\"skipped\":105,\"elapsedMs\":570,\"batchStart\":2701,\"batchEnd\":3000,\"total\":9388,\"hasMore\":true,\"nextBatch\":{\"params\":{\"start\":3001,\"size\":300},\"batchStart\":3001,\"batchSize\":300,\"_batchStart\":3001,\"_batchSize\":300,\"batch_start\":3001,\"batch_size\":300,\"start\":3001,\"size\":300}}",
      "durationMs": 583
    }
  },
  {
    "id": "tool_1775181380127_azey",
    "role": "tool",
    "content": "",
    "timestamp": 1775181380127,
    "toolCall": {
      "toolName": "executeFile",
      "input": {
        "filePath": "skills/generalformat/scripts/format-engine.js",
        "params": {
          "config": "$artifact:20260403-m205by",
          "params": {
            "start": 3001,
            "size": 300
          }
        }
      },
      "output": "$artifact:20260403-6ivoia\n{\"success\":true,\"applied\":185,\"skipped\":115,\"elapsedMs\":542,\"batchStart\":3001,\"batchEnd\":3300,\"total\":9388,\"hasMore\":true,\"nextBatch\":{\"params\":{\"start\":3301,\"size\":300},\"batchStart\":3301,\"batchSize\":300,\"_batchStart\":3301,\"_batchSize\":300,\"batch_start\":3301,\"batch_size\":300,\"start\":3301,\"size\":300}}",
      "durationMs": 559
    }
  },
  {
    "id": "tool_1775181382744_8swn",
    "role": "tool",
    "content": "",
    "timestamp": 1775181382744,
    "toolCall": {
      "toolName": "executeFile",
      "input": {
        "filePath": "skills/generalformat/scripts/format-engine.js",
        "params": {
          "config": "$artifact:20260403-m205by",
          "params": {
            "start": 3301,
            "size": 300
          }
        }
      },
      "output": "$artifact:20260403-9dy4zl\n{\"success\":true,\"applied\":160,\"skipped\":140,\"elapsedMs\":469,\"batchStart\":3301,\"batchEnd\":3600,\"total\":9388,\"hasMore\":true,\"nextBatch\":{\"params\":{\"start\":3601,\"size\":300},\"batchStart\":3601,\"batchSize\":300,\"_batchStart\":3601,\"_batchSize\":300,\"batch_start\":3601,\"batch_size\":300,\"start\":3601,\"size\":300}}",
      "durationMs": 481
    }
  },
  {
    "id": "tool_1775181385454_s0ip",
    "role": "tool",
    "content": "",
    "timestamp": 1775181385454,
    "toolCall": {
      "toolName": "executeFile",
      "input": {
        "filePath": "skills/generalformat/scripts/format-engine.js",
        "params": {
          "config": "$artifact:20260403-m205by",
          "params": {
            "start": 3601,
            "size": 300
          }
        }
      },
      "output": "$artifact:20260403-5kzwnu\n{\"success\":true,\"applied\":207,\"skipped\":93,\"elapsedMs\":615,\"batchStart\":3601,\"batchEnd\":3900,\"total\":9388,\"hasMore\":true,\"nextBatch\":{\"params\":{\"start\":3901,\"size\":300},\"batchStart\":3901,\"batchSize\":300,\"_batchStart\":3901,\"_batchSize\":300,\"batch_start\":3901,\"batch_size\":300,\"start\":3901,\"size\":300}}",
      "durationMs": 630
    }
  },
  {
    "id": "tool_1775181388450_4pxe",
    "role": "tool",
    "content": "",
    "timestamp": 1775181388450,
    "toolCall": {
      "toolName": "executeFile",
      "input": {
        "filePath": "skills/generalformat/scripts/format-engine.js",
        "params": {
          "config": "$artifact:20260403-m205by",
          "params": {
            "start": 3901,
            "size": 300
          }
        }
      },
      "output": "$artifact:20260403-zi8qd2\n{\"success\":true,\"applied\":210,\"skipped\":90,\"elapsedMs\":675,\"batchStart\":3901,\"batchEnd\":4200,\"total\":9388,\"hasMore\":true,\"nextBatch\":{\"params\":{\"start\":4201,\"size\":300},\"batchStart\":4201,\"batchSize\":300,\"_batchStart\":4201,\"_batchSize\":300,\"batch_start\":4201,\"batch_size\":300,\"start\":4201,\"size\":300}}",
      "durationMs": 716
    }
  },
  {
    "id": "tool_1775181392392_hj38",
    "role": "tool",
    "content": "",
    "timestamp": 1775181392392,
    "toolCall": {
      "toolName": "executeFile",
      "input": {
        "filePath": "skills/generalformat/scripts/format-engine.js",
        "params": {
          "config": "$artifact:20260403-m205by",
          "params": {
            "start": 4201,
            "size": 300
          }
        }
      },
      "output": "$artifact:20260403-lbg6nu\n{\"success\":true,\"applied\":190,\"skipped\":110,\"elapsedMs\":593,\"batchStart\":4201,\"batchEnd\":4500,\"total\":9388,\"hasMore\":true,\"nextBatch\":{\"params\":{\"start\":4501,\"size\":300},\"batchStart\":4501,\"batchSize\":300,\"_batchStart\":4501,\"_batchSize\":300,\"batch_start\":4501,\"batch_size\":300,\"start\":4501,\"size\":300}}",
      "durationMs": 611
    }
  },
  {
    "id": "tool_1775181395263_xi1w",
    "role": "tool",
    "content": "",
    "timestamp": 1775181395263,
    "toolCall": {
      "toolName": "executeFile",
      "input": {
        "filePath": "skills/generalformat/scripts/format-engine.js",
        "params": {
          "config": "$artifact:20260403-m205by",
          "params": {
            "start": 4501,
            "size": 300
          }
        }
      },
      "output": "$artifact:20260403-5r5r2a\n{\"success\":true,\"applied\":192,\"skipped\":108,\"elapsedMs\":597,\"batchStart\":4501,\"batchEnd\":4800,\"total\":9388,\"hasMore\":true,\"nextBatch\":{\"params\":{\"start\":4801,\"size\":300},\"batchStart\":4801,\"batchSize\":300,\"_batchStart\":4801,\"_batchSize\":300,\"batch_start\":4801,\"batch_size\":300,\"start\":4801,\"size\":300}}",
      "durationMs": 617
    }
  },
  {
    "id": "tool_1775181398230_gdly",
    "role": "tool",
    "content": "",
    "timestamp": 1775181398231,
    "toolCall": {
      "toolName": "executeFile",
      "input": {
        "filePath": "skills/generalformat/scripts/format-engine.js",
        "params": {
          "config": "$artifact:20260403-m205by",
          "params": {
            "start": 4801,
            "size": 300
          }
        }
      },
      "output": "$artifact:20260403-wai9c9\n{\"success\":true,\"applied\":188,\"skipped\":112,\"elapsedMs\":589,\"batchStart\":4801,\"batchEnd\":5100,\"total\":9388,\"hasMore\":true,\"nextBatch\":{\"params\":{\"start\":5101,\"size\":300},\"batchStart\":5101,\"batchSize\":300,\"_batchStart\":5101,\"_batchSize\":300,\"batch_start\":5101,\"batch_size\":300,\"start\":5101,\"size\":300}}",
      "durationMs": 607
    }
  },
  {
    "id": "tool_1775181401064_j0e9",
    "role": "tool",
    "content": "",
    "timestamp": 1775181401064,
    "toolCall": {
      "toolName": "executeFile",
      "input": {
        "filePath": "skills/generalformat/scripts/format-engine.js",
        "params": {
          "config": "$artifact:20260403-m205by",
          "params": {
            "start": 5101,
            "size": 300
          }
        }
      },
      "output": "$artifact:20260403-dc2f8r\n{\"success\":true,\"applied\":192,\"skipped\":108,\"elapsedMs\":607,\"batchStart\":5101,\"batchEnd\":5400,\"total\":9388,\"hasMore\":true,\"nextBatch\":{\"params\":{\"start\":5401,\"size\":300},\"batchStart\":5401,\"batchSize\":300,\"_batchStart\":5401,\"_batchSize\":300,\"batch_start\":5401,\"batch_size\":300,\"start\":5401,\"size\":300}}",
      "durationMs": 625
    }
  },
  {
    "id": "tool_1775181403854_1ybd",
    "role": "tool",
    "content": "",
    "timestamp": 1775181403854,
    "toolCall": {
      "toolName": "executeFile",
      "input": {
        "filePath": "skills/generalformat/scripts/format-engine.js",
        "params": {
          "config": "$artifact:20260403-m205by",
          "params": {
            "start": 5401,
            "size": 300
          }
        }
      },
      "output": "$artifact:20260403-llldgh\n{\"success\":true,\"applied\":212,\"skipped\":88,\"elapsedMs\":678,\"batchStart\":5401,\"batchEnd\":5700,\"total\":9388,\"hasMore\":true,\"nextBatch\":{\"params\":{\"start\":5701,\"size\":300},\"batchStart\":5701,\"batchSize\":300,\"_batchStart\":5701,\"_batchSize\":300,\"batch_start\":5701,\"batch_size\":300,\"start\":5701,\"size\":300}}",
      "durationMs": 699
    }
  },
  {
    "id": "tool_1775181406534_xdr3",
    "role": "tool",
    "content": "",
    "timestamp": 1775181406534,
    "toolCall": {
      "toolName": "executeFile",
      "input": {
        "filePath": "skills/generalformat/scripts/format-engine.js",
        "params": {
          "config": "$artifact:20260403-m205by",
          "params": {
            "start": 5701,
            "size": 300
          }
        }
      },
      "output": "$artifact:20260403-ymojjq\n{\"success\":true,\"applied\":165,\"skipped\":135,\"elapsedMs\":546,\"batchStart\":5701,\"batchEnd\":6000,\"total\":9388,\"hasMore\":true,\"nextBatch\":{\"params\":{\"start\":6001,\"size\":300},\"batchStart\":6001,\"batchSize\":300,\"_batchStart\":6001,\"_batchSize\":300,\"batch_start\":6001,\"batch_size\":300,\"start\":6001,\"size\":300}}",
      "durationMs": 567
    }
  },
  {
    "id": "tool_1775181409540_pvrb",
    "role": "tool",
    "content": "",
    "timestamp": 1775181409540,
    "toolCall": {
      "toolName": "executeFile",
      "input": {
        "filePath": "skills/generalformat/scripts/format-engine.js",
        "params": {
          "config": "$artifact:20260403-m205by",
          "params": {
            "start": 6001,
            "size": 300
          }
        }
      },
      "output": "$artifact:20260403-bpggaw\n{\"success\":true,\"applied\":181,\"skipped\":119,\"elapsedMs\":661,\"batchStart\":6001,\"batchEnd\":6300,\"total\":9388,\"hasMore\":true,\"nextBatch\":{\"params\":{\"start\":6301,\"size\":300},\"batchStart\":6301,\"batchSize\":300,\"_batchStart\":6301,\"_batchSize\":300,\"batch_start\":6301,\"batch_size\":300,\"start\":6301,\"size\":300}}",
      "durationMs": 683
    }
  }
]